module github.com/juker1141/shopping-mall-go

go 1.21

require (
	github.com/gin-gonic/gin v1.9.1
	github.com/golang/mock v1.4.4
	github.com/google/uuid v1.3.1
	github.com/jackc/pgx/v5 v5.4.2
	github.com/spf13/viper v1.16.0
	github.com/stretchr/testify v1.8.4
	golang.org/x/crypto v0.12.0
)

require (
	github.com/aead/chacha20poly1305 v0.0.0-20201124145622-1a5aba2a8b29
	github.com/gin-contrib/cors v1.4.0
	github.com/golang-jwt/jwt v3.2.2+incompatible
	github.com/hibiken/asynq v0.24.1
	github.com/jordan-wright/email v4.0.1-0.20210109023952-943e75fe5223+incompatible
	github.com/o1egl/paseto v1.0.0
)

require (
	github.com/aead/chacha20 v0.0.0-20180709150244-8b13a72661da // indirect
	github.com/aead/poly1305 v0.0.0-20180717145839-3fee0db0b635 // indirect
	github.com/cespare/xxhash/v2 v2.2.0 // indirect
	github.com/dgryski/go-rendezvous v0.0.0-20200823014737-9f7001d12a5f // indirect
	github.com/golang/protobuf v1.5.3 // indirect
	github.com/mattn/go-colorable v0.1.13 // indirect
	github.com/pkg/errors v0.9.1 // indirect
	github.com/redis/go-redis/v9 v9.2.1 // indirect
	github.com/robfig/cron/v3 v3.0.1 // indirect
	golang.org/x/time v0.3.0 // indirect
)

require (
	github.com/bytedance/sonic v1.10.0-rc3 // indirect
	github.com/chenzhuoyu/base64x v0.0.0-20230717121745-296ad89f973d // indirect
	github.com/chenzhuoyu/iasm v0.9.0 // indirect
	github.com/davecgh/go-spew v1.1.1 // indirect
	github.com/fsnotify/fsnotify v1.6.0 // indirect
	github.com/gabriel-vasile/mimetype v1.4.2 // indirect
	github.com/gin-contrib/sse v0.1.0 // indirect
	github.com/go-playground/locales v0.14.1
	github.com/go-playground/universal-translator v0.18.1
	github.com/go-playground/validator/v10 v10.15.0
	github.com/goccy/go-json v0.10.2 // indirect
	github.com/hashicorp/hcl v1.0.0 // indirect
	github.com/jackc/pgpassfile v1.0.0 // indirect
	github.com/jackc/pgservicefile v0.0.0-20221227161230-091c0ba34f0a // indirect
	github.com/jackc/puddle/v2 v2.2.0 // indirect
	github.com/json-iterator/go v1.1.12 // indirect
	github.com/klauspost/cpuid/v2 v2.2.5 // indirect
	github.com/leodido/go-urn v1.2.4 // indirect
	github.com/magiconair/properties v1.8.7 // indirect
	github.com/mattn/go-isatty v0.0.19 // indirect
	github.com/mitchellh/mapstructure v1.5.0 // indirect
	github.com/modern-go/concurrent v0.0.0-20180306012644-bacd9c7ef1dd // indirect
	github.com/modern-go/reflect2 v1.0.2 // indirect
	github.com/pelletier/go-toml/v2 v2.0.9 // indirect
	github.com/pmezard/go-difflib v1.0.0 // indirect
	github.com/rogpeppe/go-internal v1.11.0 // indirect
	github.com/rs/zerolog v1.31.0
	github.com/spf13/afero v1.9.5 // indirect
	github.com/spf13/cast v1.5.1 // indirect
	github.com/spf13/jwalterweatherman v1.1.0 // indirect
	github.com/spf13/pflag v1.0.5 // indirect
	github.com/subosito/gotenv v1.4.2 // indirect
	github.com/twitchyliquid64/golang-asm v0.15.1 // indirect
	github.com/ugorji/go/codec v1.2.11 // indirect
	golang.org/x/arch v0.4.0 // indirect
	golang.org/x/net v0.14.0 // indirect
	golang.org/x/sync v0.1.0 // indirect
	golang.org/x/sys v0.12.0 // indirect
	golang.org/x/text v0.12.0 // indirect
	google.golang.org/protobuf v1.31.0 // indirect
	gopkg.in/ini.v1 v1.67.0 // indirect
	gopkg.in/yaml.v3 v3.0.1 // indirect
)
